…
# Join two dataframes
zipcode$zip <- as.numeric(zipcode$zip)
df <- inner_join(contribution,zipcode)

## Joining, by = "zip"

df

## # A tibble: 1,292,843 x 19
##    cand_nm contb_receipt_a…   zip contb_date type  primary_city acceptable_citi…
##    <chr>              <dbl> <dbl> <date>     <chr> <chr>        <chr>           
##  1 Clinto…             50   94939 2016-04-26 STAN… Larkspur     <NA>            
##  2 Clinto…            200   93428 2016-04-20 STAN… Cambria      <NA>            
##  3 Clinto…              5   92337 2016-04-02 STAN… Fontana      <NA>            
##  4 Trump,…             48.3 95334 2016-11-21 STAN… Livingston   <NA>            
##  5 Sander…             40   93011 2016-03-04 PO B… Camarillo    <NA>            
##  6 Trump,…            244.  95826 2016-11-24 STAN… Sacramento   <NA>            
##  7 Sander…             35   90278 2016-03-05 STAN… Redondo Bea… <NA>            
##  8 Sander…            100   90278 2016-03-06 STAN… Redondo Bea… <NA>            
##  9 Sander…             25   92084 2016-03-04 STAN… Vista        <NA>            
## 10 Clinto…             40   92637 2016-04-20 STAN… Laguna Woods Laguna Hills    
## # … with 1,292,833 more rows, and 12 more variables: unacceptable_cities <chr>,
## #   state <chr>, county <chr>, timezone <chr>, area_codes <dbl>,
## #   latitude <dbl>, longitude <dbl>, world_region <chr>, country <chr>,
## #   decommissioned <dbl>, estimated_population <dbl>, notes <chr>
…
##  [1] "Clinton, Hillary Rodham"   "Trump, Donald J."         
##  [3] "Sanders, Bernard"          "Cruz, Rafael Edward 'Ted'"
##  [5] "Bush, Jeb"                 "Rubio, Marco"             
##  [7] "Kasich, John R."           "Paul, Rand"               
##  [9] "Fiorina, Carly"            "Carson, Benjamin S."

top_candidate <- df2 %>%
  group_by(cand_nm,primary_city) %>%
  summarise(total_contribution=sum(contb_receipt_amt))

## `summarise()` regrouping output by 'cand_nm' (override with `.groups` argument)

top_candidate

## # A tibble: 6,255 x 3
## # Groups:   cand_nm [10]
##    cand_nm   primary_city total_contribution
##    <chr>     <chr>                     <dbl>
##  1 Bush, Jeb Agoura Hills              4200 
##  2 Bush, Jeb Alameda                   1700 
##  3 Bush, Jeb Alamo                     5400 
##  4 Bush, Jeb Alhambra                  5400 
##  5 Bush, Jeb Aliso Viejo               8100 
##  6 Bush, Jeb Altadena                  5650 
##  7 Bush, Jeb Anaheim                   9050 
##  8 Bush, Jeb Arcadia                  31708.
##  9 Bush, Jeb Atherton                 61400 
## 10 Bush, Jeb Auburn                    2700 
## # … with 6,245 more rows
…
